info face="Droid Sans Mono" size=20 bold=0 italic=0 charset="" unicode=1 stretchH=100 smooth=1 aa=1 padding=0,0,0,0 spacing=1,1 outline=0
common lineHeight=20 base=16 scaleW=512 scaleH=512 pages=1 packed=0 alphaChnl=0 redChnl=4 greenChnl=4 blueChnl=4
page id=0 file="main_mono_20_0.png"
chars count=446
char id=32   x=509   y=0     width=0     height=1     xoffset=0     yoffset=19    xadvance=10    page=0  chnl=15
char id=33   x=506   y=46    width=4     height=12    xoffset=3     yoffset=4     xadvance=10    page=0  chnl=15
char id=34   x=144   y=127   width=8     height=4     xoffset=1     yoffset=4     xadvance=10    page=0  chnl=15
char id=35   x=247   y=62    width=12    height=12    xoffset=-1    yoffset=4     xadvance=10    page=0  chnl=15
char id=36   x=265   y=33    width=9     height=14    xoffset=1     yoffset=3     xadvance=10    page=0  chnl=15
char id=37   x=273   y=62    width=12    height=12    xoffset=-1    yoffset=4     xadvance=10    page=0  chnl=15
char id=38   x=492   y=60    width=11    height=12    xoffset=0     yoffset=4     xadvance=10    page=0  chnl=15
char id=39   x=165   y=127   width=4     height=4     xoffset=3     yoffset=4     xadvance=10    page=0  chnl=15
char id=40   x=164   y=33    width=7     height=15    xoffset=2     yoffset=4     xadvance=10    page=0  chnl=15
char id=41   x=156   y=33    width=7     height=15    xoffset=1     yoffset=4     xadvance=10    page=0  chnl=15
char id=42   x=22    y=129   width=10    height=8     xoffset=1     yoffset=3     xadvance=10    page=0  chnl=15
char id=43   x=332   y=110   width=10    height=9     xoffset=0     yoffset=5     xadvance=10    page=0  chnl=15
char id=44   x=159   y=127   width=5     height=4     xoffset=2     yoffset=14    xadvance=10    page=0  chnl=15
char id=45   x=263   y=121   width=7     height=2     xoffset=1     yoffset=11    xadvance=10    page=0  chnl=15
char id=46   x=271   y=121   width=4     height=2     xoffset=3     yoffset=14    xadvance=10    page=0  chnl=15
char id=47   x=171   y=102   width=8     height=12    xoffset=1     yoffset=4     xadvance=10    page=0  chnl=15
char id=48   x=22    y=93    width=10    height=12    xoffset=0     yoffset=4     xadvance=10    page=0  chnl=15
char id=49   x=504   y=60    width=7     height=12    xoffset=1     yoffset=4     xadvance=10    page=0  chnl=15
char id=50   x=11    y=93    width=10    height=12    xoffset=0     yoffset=4     xadvance=10    page=0  chnl=15
char id=51   x=488   y=73    width=10    height=12    xoffset=0     yoffset=4     xadvance=10    page=0  chnl=15
char id=52   x=12    y=80    width=11    height=12    xoffset=0     yoffset=4     xadvance=10    page=0  chnl=15
char id=53   x=466   y=73    width=10    height=12    xoffset=0     yoffset=4     xadvance=10    page=0  chnl=15
char id=54   x=455   y=73    width=10    height=12    xoffset=0     yoffset=4     xadvance=10    page=0  chnl=15
char id=55   x=444   y=73    width=10    height=12    xoffset=0     yoffset=4     xadvance=10    page=0  chnl=15
char id=56   x=422   y=74    width=10    height=12    xoffset=0     yoffset=4     xadvance=10    page=0  chnl=15
char id=57   x=411   y=74    width=10    height=12    xoffset=0     yoffset=4     xadvance=10    page=0  chnl=15
char id=58   x=506   y=98    width=4     height=9     xoffset=3     yoffset=7     xadvance=10    page=0  chnl=15
char id=59   x=506   y=86    width=5     height=11    xoffset=2     yoffset=7     xadvance=10    page=0  chnl=15
char id=60   x=11    y=129   width=10    height=8     xoffset=0     yoffset=6     xadvance=10    page=0  chnl=15
char id=61   x=122   y=127   width=10    height=5     xoffset=0     yoffset=7     xadvance=10    page=0  chnl=15
char id=62   x=486   y=109   width=10    height=8     xoffset=0     yoffset=6     xadvance=10    page=0  chnl=15
char id=63   x=400   y=74    width=10    height=12    xoffset=0     yoffset=4     xadvance=10    page=0  chnl=15
char id=64   x=186   y=33    width=12    height=14    xoffset=-1    yoffset=4     xadvance=10    page=0  chnl=15
char id=65   x=467   y=47    width=12    height=12    xoffset=-1    yoffset=4     xadvance=10    page=0  chnl=15
char id=66   x=389   y=74    width=10    height=12    xoffset=0     yoffset=4     xadvance=10    page=0  chnl=15
char id=67   x=378   y=74    width=10    height=12    xoffset=0     yoffset=4     xadvance=10    page=0  chnl=15
char id=68   x=356   y=74    width=10    height=12    xoffset=0     yoffset=4     xadvance=10    page=0  chnl=15
char id=69   x=72    y=104   width=9     height=12    xoffset=1     yoffset=4     xadvance=10    page=0  chnl=15
char id=70   x=142   y=104   width=9     height=12    xoffset=1     yoffset=4     xadvance=10    page=0  chnl=15
char id=71   x=312   y=74    width=10    height=12    xoffset=0     yoffset=4     xadvance=10    page=0  chnl=15
char id=72   x=301   y=74    width=10    height=12    xoffset=0     yoffset=4     xadvance=10    page=0  chnl=15
char id=73   x=32    y=106   width=9     height=12    xoffset=1     yoffset=4     xadvance=10    page=0  chnl=15
char id=74   x=62    y=104   width=9     height=12    xoffset=0     yoffset=4     xadvance=10    page=0  chnl=15
char id=75   x=468   y=60    width=11    height=12    xoffset=0     yoffset=4     xadvance=10    page=0  chnl=15
char id=76   x=92    y=104   width=9     height=12    xoffset=1     yoffset=4     xadvance=10    page=0  chnl=15
char id=77   x=268   y=75    width=10    height=12    xoffset=0     yoffset=4     xadvance=10    page=0  chnl=15
char id=78   x=257   y=75    width=10    height=12    xoffset=0     yoffset=4     xadvance=10    page=0  chnl=15
char id=79   x=246   y=75    width=10    height=12    xoffset=0     yoffset=4     xadvance=10    page=0  chnl=15
char id=80   x=224   y=75    width=10    height=12    xoffset=0     yoffset=4     xadvance=10    page=0  chnl=15
char id=81   x=409   y=17    width=10    height=15    xoffset=0     yoffset=4     xadvance=10    page=0  chnl=15
char id=82   x=48    y=78    width=11    height=12    xoffset=0     yoffset=4     xadvance=10    page=0  chnl=15
char id=83   x=202   y=75    width=10    height=12    xoffset=0     yoffset=4     xadvance=10    page=0  chnl=15
char id=84   x=191   y=76    width=10    height=12    xoffset=0     yoffset=4     xadvance=10    page=0  chnl=15
char id=85   x=180   y=76    width=10    height=12    xoffset=0     yoffset=4     xadvance=10    page=0  chnl=15
char id=86   x=493   y=47    width=12    height=12    xoffset=-1    yoffset=4     xadvance=10    page=0  chnl=15
char id=87   x=130   y=65    width=12    height=12    xoffset=-1    yoffset=4     xadvance=10    page=0  chnl=15
char id=88   x=0     y=67    width=12    height=12    xoffset=-1    yoffset=4     xadvance=10    page=0  chnl=15
char id=89   x=480   y=60    width=11    height=12    xoffset=0     yoffset=4     xadvance=10    page=0  chnl=15
char id=90   x=363   y=87    width=10    height=12    xoffset=0     yoffset=4     xadvance=10    page=0  chnl=15
char id=91   x=179   y=33    width=6     height=15    xoffset=3     yoffset=4     xadvance=10    page=0  chnl=15
char id=92   x=180   y=102   width=8     height=12    xoffset=1     yoffset=4     xadvance=10    page=0  chnl=15
char id=93   x=172   y=33    width=6     height=15    xoffset=1     yoffset=4     xadvance=10    page=0  chnl=15
char id=94   x=497   y=109   width=10    height=8     xoffset=0     yoffset=4     xadvance=10    page=0  chnl=15
char id=95   x=212   y=123   width=12    height=2     xoffset=-1    yoffset=18    xadvance=10    page=0  chnl=15
char id=96   x=190   y=125   width=5     height=3     xoffset=3     yoffset=3     xadvance=10    page=0  chnl=15
char id=97   x=233   y=113   width=10    height=9     xoffset=0     yoffset=7     xadvance=10    page=0  chnl=15
char id=98   x=352   y=47    width=10    height=13    xoffset=0     yoffset=3     xadvance=10    page=0  chnl=15
char id=99   x=266   y=111   width=10    height=9     xoffset=0     yoffset=7     xadvance=10    page=0  chnl=15
char id=100  x=341   y=47    width=10    height=13    xoffset=0     yoffset=3     xadvance=10    page=0  chnl=15
char id=101  x=288   y=111   width=10    height=9     xoffset=0     yoffset=7     xadvance=10    page=0  chnl=15
char id=102  x=413   y=47    width=9     height=13    xoffset=1     yoffset=3     xadvance=10    page=0  chnl=15
char id=103  x=349   y=33    width=11    height=13    xoffset=-1    yoffset=7     xadvance=10    page=0  chnl=15
char id=104  x=253   y=48    width=10    height=13    xoffset=0     yoffset=3     xadvance=10    page=0  chnl=15
char id=105  x=132   y=50    width=10    height=13    xoffset=0     yoffset=3     xadvance=10    page=0  chnl=15
char id=106  x=102   y=0     width=8     height=17    xoffset=0     yoffset=3     xadvance=10    page=0  chnl=15
char id=107  x=403   y=47    width=9     height=13    xoffset=1     yoffset=3     xadvance=10    page=0  chnl=15
char id=108  x=88    y=51    width=10    height=13    xoffset=0     yoffset=3     xadvance=10    page=0  chnl=15
char id=109  x=387   y=110   width=10    height=9     xoffset=0     yoffset=7     xadvance=10    page=0  chnl=15
char id=110  x=35    y=119   width=10    height=9     xoffset=0     yoffset=7     xadvance=10    page=0  chnl=15
char id=111  x=79    y=117   width=10    height=9     xoffset=0     yoffset=7     xadvance=10    page=0  chnl=15
char id=112  x=33    y=51    width=10    height=13    xoffset=0     yoffset=7     xadvance=10    page=0  chnl=15
char id=113  x=22    y=52    width=10    height=13    xoffset=0     yoffset=7     xadvance=10    page=0  chnl=15
char id=114  x=420   y=110   width=9     height=9     xoffset=1     yoffset=7     xadvance=10    page=0  chnl=15
char id=115  x=468   y=109   width=8     height=9     xoffset=1     yoffset=7     xadvance=10    page=0  chnl=15
char id=116  x=112   y=104   width=9     height=12    xoffset=1     yoffset=4     xadvance=10    page=0  chnl=15
char id=117  x=200   y=114   width=10    height=9     xoffset=0     yoffset=7     xadvance=10    page=0  chnl=15
char id=118  x=189   y=115   width=10    height=9     xoffset=0     yoffset=7     xadvance=10    page=0  chnl=15
char id=119  x=293   y=101   width=12    height=9     xoffset=-1    yoffset=7     xadvance=10    page=0  chnl=15
char id=120  x=167   y=115   width=10    height=9     xoffset=0     yoffset=7     xadvance=10    page=0  chnl=15
char id=121  x=198   y=48    width=10    height=13    xoffset=0     yoffset=7     xadvance=10    page=0  chnl=15
char id=122  x=477   y=109   width=8     height=9     xoffset=1     yoffset=7     xadvance=10    page=0  chnl=15
char id=123  x=147   y=33    width=8     height=15    xoffset=1     yoffset=4     xadvance=10    page=0  chnl=15
char id=124  x=120   y=0     width=3     height=17    xoffset=3     yoffset=3     xadvance=10    page=0  chnl=15
char id=125  x=503   y=0     width=8     height=15    xoffset=1     yoffset=4     xadvance=10    page=0  chnl=15
char id=126  x=170   y=125   width=10    height=3     xoffset=0     yoffset=8     xadvance=10    page=0  chnl=15
char id=160  x=508   y=0     width=0     height=1     xoffset=0     yoffset=19    xadvance=10    page=0  chnl=15
char id=161  x=506   y=33    width=4     height=12    xoffset=3     yoffset=7     xadvance=10    page=0  chnl=15
char id=162  x=253   y=88    width=10    height=12    xoffset=0     yoffset=4     xadvance=10    page=0  chnl=15
char id=163  x=231   y=88    width=10    height=12    xoffset=0     yoffset=4     xadvance=10    page=0  chnl=15
char id=164  x=33    y=129   width=8     height=8     xoffset=1     yoffset=6     xadvance=10    page=0  chnl=15
char id=165  x=209   y=88    width=10    height=12    xoffset=0     yoffset=4     xadvance=10    page=0  chnl=15
char id=166  x=124   y=0     width=3     height=17    xoffset=3     yoffset=3     xadvance=10    page=0  chnl=15
char id=167  x=432   y=47    width=8     height=13    xoffset=1     yoffset=3     xadvance=10    page=0  chnl=15
char id=168  x=247   y=123   width=7     height=2     xoffset=1     yoffset=3     xadvance=10    page=0  chnl=15
char id=169  x=39    y=65    width=12    height=12    xoffset=-1    yoffset=4     xadvance=10    page=0  chnl=15
char id=170  x=114   y=127   width=7     height=6     xoffset=1     yoffset=4     xadvance=10    page=0  chnl=15
char id=171  x=42    y=129   width=10    height=7     xoffset=0     yoffset=8     xadvance=10    page=0  chnl=15
char id=172  x=133   y=127   width=10    height=4     xoffset=0     yoffset=9     xadvance=10    page=0  chnl=15
char id=173  x=255   y=121   width=7     height=2     xoffset=1     yoffset=11    xadvance=10    page=0  chnl=15
char id=174  x=65    y=65    width=12    height=12    xoffset=-1    yoffset=4     xadvance=10    page=0  chnl=15
char id=175  x=225   y=123   width=12    height=2     xoffset=-1    yoffset=1     xadvance=10    page=0  chnl=15
char id=176  x=96    y=127   width=8     height=6     xoffset=1     yoffset=4     xadvance=10    page=0  chnl=15
char id=177  x=210   y=101   width=10    height=11    xoffset=0     yoffset=5     xadvance=10    page=0  chnl=15
char id=178  x=74    y=127   width=7     height=7     xoffset=1     yoffset=4     xadvance=10    page=0  chnl=15
char id=179  x=82    y=127   width=7     height=7     xoffset=2     yoffset=4     xadvance=10    page=0  chnl=15
char id=180  x=196   y=125   width=5     height=3     xoffset=3     yoffset=3     xadvance=10    page=0  chnl=15
char id=181  x=330   y=47    width=10    height=13    xoffset=0     yoffset=7     xadvance=10    page=0  chnl=15
char id=182  x=442   y=17    width=10    height=15    xoffset=0     yoffset=3     xadvance=10    page=0  chnl=15
char id=183  x=276   y=121   width=4     height=2     xoffset=3     yoffset=9     xadvance=10    page=0  chnl=15
char id=184  x=153   y=127   width=5     height=4     xoffset=2     yoffset=16    xadvance=10    page=0  chnl=15
char id=185  x=90    y=127   width=5     height=7     xoffset=2     yoffset=4     xadvance=10    page=0  chnl=15
char id=186  x=105   y=127   width=8     height=6     xoffset=1     yoffset=4     xadvance=10    page=0  chnl=15
char id=187  x=53    y=129   width=10    height=7     xoffset=0     yoffset=8     xadvance=10    page=0  chnl=15
char id=188  x=91    y=65    width=12    height=12    xoffset=-1    yoffset=4     xadvance=10    page=0  chnl=15
char id=189  x=480   y=47    width=12    height=12    xoffset=-1    yoffset=4     xadvance=10    page=0  chnl=15
char id=190  x=104   y=65    width=12    height=12    xoffset=-1    yoffset=4     xadvance=10    page=0  chnl=15
char id=191  x=334   y=74    width=10    height=12    xoffset=0     yoffset=7     xadvance=10    page=0  chnl=15
char id=192  x=141   y=0     width=12    height=16    xoffset=-1    yoffset=0     xadvance=10    page=0  chnl=15
char id=193  x=128   y=0     width=12    height=16    xoffset=-1    yoffset=0     xadvance=10    page=0  chnl=15
char id=194  x=167   y=0     width=12    height=16    xoffset=-1    yoffset=0     xadvance=10    page=0  chnl=15
char id=195  x=232   y=0     width=12    height=16    xoffset=-1    yoffset=0     xadvance=10    page=0  chnl=15
char id=196  x=254   y=17    width=12    height=15    xoffset=-1    yoffset=1     xadvance=10    page=0  chnl=15
char id=197  x=228   y=17    width=12    height=15    xoffset=-1    yoffset=1     xadvance=10    page=0  chnl=15
char id=198  x=384   y=61    width=11    height=12    xoffset=-1    yoffset=4     xadvance=10    page=0  chnl=15
char id=199  x=0     y=20    width=10    height=16    xoffset=0     yoffset=4     xadvance=10    page=0  chnl=15
char id=200  x=73    y=18    width=9     height=16    xoffset=1     yoffset=0     xadvance=10    page=0  chnl=15
char id=201  x=43    y=18    width=9     height=16    xoffset=1     yoffset=0     xadvance=10    page=0  chnl=15
char id=202  x=103   y=18    width=9     height=16    xoffset=1     yoffset=0     xadvance=10    page=0  chnl=15
char id=203  x=117   y=35    width=9     height=15    xoffset=1     yoffset=1     xadvance=10    page=0  chnl=15
char id=204  x=93    y=18    width=9     height=16    xoffset=1     yoffset=0     xadvance=10    page=0  chnl=15
char id=205  x=63    y=18    width=9     height=16    xoffset=1     yoffset=0     xadvance=10    page=0  chnl=15
char id=206  x=33    y=18    width=9     height=16    xoffset=1     yoffset=0     xadvance=10    page=0  chnl=15
char id=207  x=107   y=35    width=9     height=15    xoffset=1     yoffset=1     xadvance=10    page=0  chnl=15
char id=208  x=312   y=61    width=11    height=12    xoffset=-1    yoffset=4     xadvance=10    page=0  chnl=15
char id=209  x=470   y=0     width=10    height=16    xoffset=0     yoffset=0     xadvance=10    page=0  chnl=15
char id=210  x=481   y=0     width=10    height=16    xoffset=0     yoffset=0     xadvance=10    page=0  chnl=15
char id=211  x=492   y=0     width=10    height=16    xoffset=0     yoffset=0     xadvance=10    page=0  chnl=15
char id=212  x=22    y=19    width=10    height=16    xoffset=0     yoffset=0     xadvance=10    page=0  chnl=15
char id=213  x=349   y=0     width=10    height=16    xoffset=0     yoffset=0     xadvance=10    page=0  chnl=15
char id=214  x=387   y=17    width=10    height=15    xoffset=0     yoffset=1     xadvance=10    page=0  chnl=15
char id=215  x=64    y=128   width=9     height=7     xoffset=0     yoffset=6     xadvance=10    page=0  chnl=15
char id=216  x=199   y=33    width=10    height=14    xoffset=0     yoffset=3     xadvance=10    page=0  chnl=15
char id=217  x=11    y=20    width=10    height=16    xoffset=0     yoffset=0     xadvance=10    page=0  chnl=15
char id=218  x=338   y=0     width=10    height=16    xoffset=0     yoffset=0     xadvance=10    page=0  chnl=15
char id=219  x=371   y=0     width=10    height=16    xoffset=0     yoffset=0     xadvance=10    page=0  chnl=15
char id=220  x=420   y=17    width=10    height=15    xoffset=0     yoffset=1     xadvance=10    page=0  chnl=15
char id=221  x=293   y=0     width=11    height=16    xoffset=0     yoffset=0     xadvance=10    page=0  chnl=15
char id=222  x=11    y=106   width=10    height=12    xoffset=0     yoffset=4     xadvance=10    page=0  chnl=15
char id=223  x=0     y=53    width=10    height=13    xoffset=0     yoffset=3     xadvance=10    page=0  chnl=15
char id=224  x=165   y=49    width=10    height=13    xoffset=0     yoffset=3     xadvance=10    page=0  chnl=15
char id=225  x=242   y=48    width=10    height=13    xoffset=0     yoffset=3     xadvance=10    page=0  chnl=15
char id=226  x=11    y=53    width=10    height=13    xoffset=0     yoffset=3     xadvance=10    page=0  chnl=15
char id=227  x=210   y=33    width=10    height=14    xoffset=0     yoffset=2     xadvance=10    page=0  chnl=15
char id=228  x=418   y=87    width=10    height=12    xoffset=0     yoffset=4     xadvance=10    page=0  chnl=15
char id=229  x=232   y=33    width=10    height=14    xoffset=0     yoffset=2     xadvance=10    page=0  chnl=15
char id=230  x=384   y=100   width=12    height=9     xoffset=-1    yoffset=7     xadvance=10    page=0  chnl=15
char id=231  x=143   y=49    width=10    height=13    xoffset=0     yoffset=7     xadvance=10    page=0  chnl=15
char id=232  x=55    y=51    width=10    height=13    xoffset=0     yoffset=3     xadvance=10    page=0  chnl=15
char id=233  x=66    y=51    width=10    height=13    xoffset=0     yoffset=3     xadvance=10    page=0  chnl=15
char id=234  x=495   y=33    width=10    height=13    xoffset=0     yoffset=3     xadvance=10    page=0  chnl=15
char id=235  x=290   y=74    width=10    height=12    xoffset=0     yoffset=4     xadvance=10    page=0  chnl=15
char id=236  x=385   y=33    width=10    height=13    xoffset=0     yoffset=3     xadvance=10    page=0  chnl=15
char id=237  x=308   y=47    width=10    height=13    xoffset=0     yoffset=3     xadvance=10    page=0  chnl=15
char id=238  x=429   y=33    width=10    height=13    xoffset=0     yoffset=3     xadvance=10    page=0  chnl=15
char id=239  x=55    y=91    width=10    height=12    xoffset=0     yoffset=4     xadvance=10    page=0  chnl=15
char id=240  x=319   y=47    width=10    height=13    xoffset=0     yoffset=3     xadvance=10    page=0  chnl=15
char id=241  x=254   y=33    width=10    height=14    xoffset=0     yoffset=2     xadvance=10    page=0  chnl=15
char id=242  x=297   y=47    width=10    height=13    xoffset=0     yoffset=3     xadvance=10    page=0  chnl=15
char id=243  x=286   y=47    width=10    height=13    xoffset=0     yoffset=3     xadvance=10    page=0  chnl=15
char id=244  x=275   y=47    width=10    height=13    xoffset=0     yoffset=3     xadvance=10    page=0  chnl=15
char id=245  x=243   y=33    width=10    height=14    xoffset=0     yoffset=2     xadvance=10    page=0  chnl=15
char id=246  x=132   y=91    width=10    height=12    xoffset=0     yoffset=4     xadvance=10    page=0  chnl=15
char id=247  x=0     y=129   width=10    height=8     xoffset=0     yoffset=6     xadvance=10    page=0  chnl=15
char id=248  x=232   y=101   width=10    height=11    xoffset=0     yoffset=6     xadvance=10    page=0  chnl=15
char id=249  x=209   y=48    width=10    height=13    xoffset=0     yoffset=3     xadvance=10    page=0  chnl=15
char id=250  x=121   y=51    width=10    height=13    xoffset=0     yoffset=3     xadvance=10    page=0  chnl=15
char id=251  x=99    y=51    width=10    height=13    xoffset=0     yoffset=3     xadvance=10    page=0  chnl=15
char id=252  x=242   y=88    width=10    height=12    xoffset=0     yoffset=4     xadvance=10    page=0  chnl=15
char id=253  x=91    y=0     width=10    height=17    xoffset=0     yoffset=3     xadvance=10    page=0  chnl=15
char id=254  x=69    y=0     width=10    height=17    xoffset=0     yoffset=3     xadvance=10    page=0  chnl=15
char id=255  x=459   y=0     width=10    height=16    xoffset=0     yoffset=4     xadvance=10    page=0  chnl=15
char id=1024 x=113   y=18    width=9     height=16    xoffset=1     yoffset=0     xadvance=10    page=0  chnl=15
char id=1025 x=87    y=35    width=9     height=15    xoffset=1     yoffset=1     xadvance=10    page=0  chnl=15
char id=1026 x=132   y=78    width=11    height=12    xoffset=-1    yoffset=4     xadvance=10    page=0  chnl=15
char id=1027 x=53    y=18    width=9     height=16    xoffset=1     yoffset=0     xadvance=10    page=0  chnl=15
char id=1028 x=396   y=87    width=10    height=12    xoffset=0     yoffset=4     xadvance=10    page=0  chnl=15
char id=1029 x=407   y=87    width=10    height=12    xoffset=0     yoffset=4     xadvance=10    page=0  chnl=15
char id=1030 x=22    y=106   width=9     height=12    xoffset=1     yoffset=4     xadvance=10    page=0  chnl=15
char id=1031 x=77    y=35    width=9     height=15    xoffset=1     yoffset=1     xadvance=10    page=0  chnl=15
char id=1032 x=42    y=106   width=9     height=12    xoffset=0     yoffset=4     xadvance=10    page=0  chnl=15
char id=1033 x=143   y=63    width=12    height=12    xoffset=-1    yoffset=4     xadvance=10    page=0  chnl=15
char id=1034 x=144   y=76    width=11    height=12    xoffset=0     yoffset=4     xadvance=10    page=0  chnl=15
char id=1035 x=156   y=76    width=11    height=12    xoffset=-1    yoffset=4     xadvance=10    page=0  chnl=15
char id=1036 x=281   y=0     width=11    height=16    xoffset=0     yoffset=0     xadvance=10    page=0  chnl=15
char id=1037 x=448   y=0     width=10    height=16    xoffset=0     yoffset=0     xadvance=10    page=0  chnl=15
char id=1038 x=219   y=0     width=12    height=16    xoffset=-1    yoffset=0     xadvance=10    page=0  chnl=15
char id=1039 x=431   y=17    width=10    height=15    xoffset=0     yoffset=4     xadvance=10    page=0  chnl=15
char id=1040 x=169   y=63    width=12    height=12    xoffset=-1    yoffset=4     xadvance=10    page=0  chnl=15
char id=1041 x=121   y=91    width=10    height=12    xoffset=0     yoffset=4     xadvance=10    page=0  chnl=15
char id=1042 x=165   y=89    width=10    height=12    xoffset=0     yoffset=4     xadvance=10    page=0  chnl=15
char id=1043 x=102   y=104   width=9     height=12    xoffset=1     yoffset=4     xadvance=10    page=0  chnl=15
char id=1044 x=241   y=17    width=12    height=15    xoffset=-1    yoffset=4     xadvance=10    page=0  chnl=15
char id=1045 x=52    y=105   width=9     height=12    xoffset=1     yoffset=4     xadvance=10    page=0  chnl=15
char id=1046 x=182   y=63    width=12    height=12    xoffset=-1    yoffset=4     xadvance=10    page=0  chnl=15
char id=1047 x=275   y=88    width=10    height=12    xoffset=0     yoffset=4     xadvance=10    page=0  chnl=15
char id=1048 x=286   y=88    width=10    height=12    xoffset=0     yoffset=4     xadvance=10    page=0  chnl=15
char id=1049 x=426   y=0     width=10    height=16    xoffset=0     yoffset=0     xadvance=10    page=0  chnl=15
char id=1050 x=432   y=61    width=11    height=12    xoffset=0     yoffset=4     xadvance=10    page=0  chnl=15
char id=1051 x=444   y=60    width=11    height=12    xoffset=-1    yoffset=4     xadvance=10    page=0  chnl=15
char id=1052 x=429   y=87    width=10    height=12    xoffset=0     yoffset=4     xadvance=10    page=0  chnl=15
char id=1053 x=451   y=86    width=10    height=12    xoffset=0     yoffset=4     xadvance=10    page=0  chnl=15
char id=1054 x=33    y=93    width=10    height=12    xoffset=0     yoffset=4     xadvance=10    page=0  chnl=15
char id=1055 x=187   y=89    width=10    height=12    xoffset=0     yoffset=4     xadvance=10    page=0  chnl=15
char id=1056 x=0     y=106   width=10    height=12    xoffset=0     yoffset=4     xadvance=10    page=0  chnl=15
char id=1057 x=176   y=89    width=10    height=12    xoffset=0     yoffset=4     xadvance=10    page=0  chnl=15
char id=1058 x=143   y=91    width=10    height=12    xoffset=0     yoffset=4     xadvance=10    page=0  chnl=15
char id=1059 x=156   y=63    width=12    height=12    xoffset=-1    yoffset=4     xadvance=10    page=0  chnl=15
char id=1060 x=117   y=65    width=12    height=12    xoffset=-1    yoffset=4     xadvance=10    page=0  chnl=15
char id=1061 x=78    y=65    width=12    height=12    xoffset=-1    yoffset=4     xadvance=10    page=0  chnl=15
char id=1062 x=280   y=17    width=11    height=15    xoffset=0     yoffset=4     xadvance=10    page=0  chnl=15
char id=1063 x=345   y=74    width=10    height=12    xoffset=0     yoffset=4     xadvance=10    page=0  chnl=15
char id=1064 x=477   y=73    width=10    height=12    xoffset=0     yoffset=4     xadvance=10    page=0  chnl=15
char id=1065 x=364   y=17    width=11    height=15    xoffset=0     yoffset=4     xadvance=10    page=0  chnl=15
char id=1066 x=456   y=60    width=11    height=12    xoffset=-1    yoffset=4     xadvance=10    page=0  chnl=15
char id=1067 x=66    y=91    width=10    height=12    xoffset=0     yoffset=4     xadvance=10    page=0  chnl=15
char id=1068 x=77    y=91    width=10    height=12    xoffset=0     yoffset=4     xadvance=10    page=0  chnl=15
char id=1069 x=88    y=91    width=10    height=12    xoffset=0     yoffset=4     xadvance=10    page=0  chnl=15
char id=1070 x=110   y=91    width=10    height=12    xoffset=0     yoffset=4     xadvance=10    page=0  chnl=15
char id=1071 x=72    y=78    width=11    height=12    xoffset=-1    yoffset=4     xadvance=10    page=0  chnl=15
char id=1072 x=255   y=111   width=10    height=9     xoffset=0     yoffset=7     xadvance=10    page=0  chnl=15
char id=1073 x=231   y=48    width=10    height=13    xoffset=0     yoffset=3     xadvance=10    page=0  chnl=15
char id=1074 x=277   y=111   width=10    height=9     xoffset=0     yoffset=7     xadvance=10    page=0  chnl=15
char id=1075 x=450   y=110   width=8     height=9     xoffset=2     yoffset=7     xadvance=10    page=0  chnl=15
char id=1076 x=96    y=78    width=11    height=12    xoffset=-1    yoffset=7     xadvance=10    page=0  chnl=15
char id=1077 x=145   y=117   width=10    height=9     xoffset=0     yoffset=7     xadvance=10    page=0  chnl=15
char id=1078 x=267   y=101   width=12    height=9     xoffset=-1    yoffset=7     xadvance=10    page=0  chnl=15
char id=1079 x=440   y=110   width=9     height=9     xoffset=0     yoffset=7     xadvance=10    page=0  chnl=15
char id=1080 x=222   y=113   width=10    height=9     xoffset=0     yoffset=7     xadvance=10    page=0  chnl=15
char id=1081 x=187   y=48    width=10    height=13    xoffset=0     yoffset=3     xadvance=10    page=0  chnl=15
char id=1082 x=321   y=110   width=10    height=9     xoffset=0     yoffset=7     xadvance=10    page=0  chnl=15
char id=1083 x=410   y=100   width=11    height=9     xoffset=-1    yoffset=7     xadvance=10    page=0  chnl=15
char id=1084 x=422   y=100   width=11    height=9     xoffset=-1    yoffset=7     xadvance=10    page=0  chnl=15
char id=1085 x=354   y=110   width=10    height=9     xoffset=0     yoffset=7     xadvance=10    page=0  chnl=15
char id=1086 x=365   y=110   width=10    height=9     xoffset=0     yoffset=7     xadvance=10    page=0  chnl=15
char id=1087 x=376   y=110   width=10    height=9     xoffset=0     yoffset=7     xadvance=10    page=0  chnl=15
char id=1088 x=176   y=49    width=10    height=13    xoffset=0     yoffset=7     xadvance=10    page=0  chnl=15
char id=1089 x=409   y=110   width=10    height=9     xoffset=0     yoffset=7     xadvance=10    page=0  chnl=15
char id=1090 x=24    y=119   width=10    height=9     xoffset=0     yoffset=7     xadvance=10    page=0  chnl=15
char id=1091 x=154   y=49    width=10    height=13    xoffset=0     yoffset=7     xadvance=10    page=0  chnl=15
char id=1092 x=36    y=0     width=10    height=17    xoffset=0     yoffset=3     xadvance=10    page=0  chnl=15
char id=1093 x=46    y=119   width=10    height=9     xoffset=0     yoffset=7     xadvance=10    page=0  chnl=15
char id=1094 x=108   y=78    width=11    height=12    xoffset=0     yoffset=7     xadvance=10    page=0  chnl=15
char id=1095 x=57    y=118   width=10    height=9     xoffset=0     yoffset=7     xadvance=10    page=0  chnl=15
char id=1096 x=68    y=117   width=10    height=9     xoffset=0     yoffset=7     xadvance=10    page=0  chnl=15
char id=1097 x=120   y=78    width=11    height=12    xoffset=0     yoffset=7     xadvance=10    page=0  chnl=15
char id=1098 x=482   y=99    width=11    height=9     xoffset=-1    yoffset=7     xadvance=10    page=0  chnl=15
char id=1099 x=90    y=117   width=10    height=9     xoffset=0     yoffset=7     xadvance=10    page=0  chnl=15
char id=1100 x=101   y=117   width=10    height=9     xoffset=0     yoffset=7     xadvance=10    page=0  chnl=15
char id=1101 x=112   y=117   width=10    height=9     xoffset=0     yoffset=7     xadvance=10    page=0  chnl=15
char id=1102 x=306   y=100   width=12    height=9     xoffset=-1    yoffset=7     xadvance=10    page=0  chnl=15
char id=1103 x=123   y=117   width=10    height=9     xoffset=0     yoffset=7     xadvance=10    page=0  chnl=15
char id=1104 x=44    y=51    width=10    height=13    xoffset=0     yoffset=3     xadvance=10    page=0  chnl=15
char id=1105 x=308   y=87    width=10    height=12    xoffset=0     yoffset=4     xadvance=10    page=0  chnl=15
char id=1106 x=24    y=0     width=11    height=17    xoffset=-1    yoffset=3     xadvance=10    page=0  chnl=15
char id=1107 x=423   y=47    width=8     height=13    xoffset=2     yoffset=3     xadvance=10    page=0  chnl=15
char id=1108 x=178   y=115   width=10    height=9     xoffset=0     yoffset=7     xadvance=10    page=0  chnl=15
char id=1109 x=459   y=109   width=8     height=9     xoffset=1     yoffset=7     xadvance=10    page=0  chnl=15
char id=1110 x=451   y=33    width=10    height=13    xoffset=0     yoffset=3     xadvance=10    page=0  chnl=15
char id=1111 x=330   y=87    width=10    height=12    xoffset=0     yoffset=4     xadvance=10    page=0  chnl=15
char id=1112 x=111   y=0     width=8     height=17    xoffset=0     yoffset=3     xadvance=10    page=0  chnl=15
char id=1113 x=280   y=101   width=12    height=9     xoffset=-1    yoffset=7     xadvance=10    page=0  chnl=15
char id=1114 x=494   y=99    width=11    height=9     xoffset=0     yoffset=7     xadvance=10    page=0  chnl=15
char id=1115 x=361   y=33    width=11    height=13    xoffset=-1    yoffset=3     xadvance=10    page=0  chnl=15
char id=1116 x=393   y=47    width=9     height=13    xoffset=1     yoffset=3     xadvance=10    page=0  chnl=15
char id=1117 x=77    y=51    width=10    height=13    xoffset=0     yoffset=3     xadvance=10    page=0  chnl=15
char id=1118 x=80    y=0     width=10    height=17    xoffset=0     yoffset=3     xadvance=10    page=0  chnl=15
char id=1119 x=462   y=86    width=10    height=12    xoffset=0     yoffset=7     xadvance=10    page=0  chnl=15
char id=1120 x=484   y=86    width=10    height=12    xoffset=0     yoffset=4     xadvance=10    page=0  chnl=15
char id=1121 x=446   y=100   width=11    height=9     xoffset=-1    yoffset=7     xadvance=10    page=0  chnl=15
char id=1122 x=337   y=33    width=11    height=13    xoffset=-1    yoffset=3     xadvance=10    page=0  chnl=15
char id=1123 x=198   y=102   width=11    height=11    xoffset=-1    yoffset=5     xadvance=10    page=0  chnl=15
char id=1124 x=495   y=86    width=10    height=12    xoffset=0     yoffset=4     xadvance=10    page=0  chnl=15
char id=1125 x=211   y=113   width=10    height=9     xoffset=0     yoffset=7     xadvance=10    page=0  chnl=15
char id=1126 x=26    y=66    width=12    height=12    xoffset=-1    yoffset=4     xadvance=10    page=0  chnl=15
char id=1127 x=434   y=100   width=11    height=9     xoffset=0     yoffset=7     xadvance=10    page=0  chnl=15
char id=1128 x=13    y=67    width=12    height=12    xoffset=0     yoffset=4     xadvance=10    page=0  chnl=15
char id=1129 x=345   y=100   width=12    height=9     xoffset=0     yoffset=7     xadvance=10    page=0  chnl=15
char id=1130 x=454   y=47    width=12    height=12    xoffset=-1    yoffset=4     xadvance=10    page=0  chnl=15
char id=1131 x=358   y=100   width=12    height=9     xoffset=-1    yoffset=7     xadvance=10    page=0  chnl=15
char id=1132 x=408   y=61    width=11    height=12    xoffset=0     yoffset=4     xadvance=10    page=0  chnl=15
char id=1133 x=371   y=100   width=12    height=9     xoffset=0     yoffset=7     xadvance=10    page=0  chnl=15
char id=1134 x=13    y=0     width=10    height=18    xoffset=0     yoffset=2     xadvance=10    page=0  chnl=15
char id=1135 x=97    y=35    width=9     height=15    xoffset=0     yoffset=5     xadvance=10    page=0  chnl=15
char id=1136 x=441   y=47    width=12    height=12    xoffset=-1    yoffset=4     xadvance=10    page=0  chnl=15
char id=1137 x=58    y=0     width=10    height=17    xoffset=0     yoffset=3     xadvance=10    page=0  chnl=15
char id=1138 x=44    y=92    width=10    height=12    xoffset=0     yoffset=4     xadvance=10    page=0  chnl=15
char id=1139 x=299   y=111   width=10    height=9     xoffset=0     yoffset=7     xadvance=10    page=0  chnl=15
char id=1140 x=286   y=61    width=12    height=12    xoffset=0     yoffset=4     xadvance=10    page=0  chnl=15
char id=1141 x=12    y=119   width=11    height=9     xoffset=0     yoffset=7     xadvance=10    page=0  chnl=15
char id=1142 x=154   y=0     width=12    height=16    xoffset=0     yoffset=0     xadvance=10    page=0  chnl=15
char id=1143 x=301   y=33    width=11    height=13    xoffset=0     yoffset=3     xadvance=10    page=0  chnl=15
char id=1144 x=269   y=0     width=11    height=16    xoffset=0     yoffset=4     xadvance=10    page=0  chnl=15
char id=1145 x=373   y=33    width=11    height=13    xoffset=0     yoffset=7     xadvance=10    page=0  chnl=15
char id=1146 x=221   y=33    width=10    height=14    xoffset=0     yoffset=3     xadvance=10    page=0  chnl=15
char id=1147 x=221   y=101   width=10    height=11    xoffset=0     yoffset=6     xadvance=10    page=0  chnl=15
char id=1148 x=305   y=0     width=10    height=16    xoffset=0     yoffset=0     xadvance=10    page=0  chnl=15
char id=1149 x=453   y=17    width=10    height=15    xoffset=0     yoffset=1     xadvance=10    page=0  chnl=15
char id=1150 x=44    y=35    width=10    height=15    xoffset=0     yoffset=1     xadvance=10    page=0  chnl=15
char id=1151 x=0     y=80    width=11    height=12    xoffset=-1    yoffset=4     xadvance=10    page=0  chnl=15
char id=1152 x=257   y=0     width=11    height=16    xoffset=0     yoffset=4     xadvance=10    page=0  chnl=15
char id=1153 x=110   y=51    width=10    height=13    xoffset=0     yoffset=7     xadvance=10    page=0  chnl=15
char id=1154 x=243   y=101   width=10    height=11    xoffset=0     yoffset=5     xadvance=10    page=0  chnl=15
char id=1155 x=181   y=125   width=8     height=3     xoffset=1     yoffset=3     xadvance=10    page=0  chnl=15
char id=1156 x=238   y=123   width=8     height=2     xoffset=1     yoffset=4     xadvance=10    page=0  chnl=15
char id=1157 x=202   y=124   width=4     height=3     xoffset=3     yoffset=3     xadvance=10    page=0  chnl=15
char id=1158 x=207   y=124   width=4     height=3     xoffset=3     yoffset=3     xadvance=10    page=0  chnl=15
char id=1160 x=397   y=100   width=12    height=9     xoffset=-1    yoffset=7     xadvance=10    page=0  chnl=15
char id=1161 x=254   y=101   width=12    height=9     xoffset=-1    yoffset=7     xadvance=10    page=0  chnl=15
char id=1162 x=0     y=0     width=12    height=19    xoffset=0     yoffset=0     xadvance=10    page=0  chnl=15
char id=1163 x=245   y=0     width=11    height=16    xoffset=0     yoffset=3     xadvance=10    page=0  chnl=15
char id=1164 x=213   y=75    width=10    height=12    xoffset=0     yoffset=4     xadvance=10    page=0  chnl=15
char id=1165 x=396   y=33    width=10    height=13    xoffset=0     yoffset=3     xadvance=10    page=0  chnl=15
char id=1166 x=235   y=75    width=10    height=12    xoffset=0     yoffset=4     xadvance=10    page=0  chnl=15
char id=1167 x=407   y=33    width=10    height=13    xoffset=0     yoffset=7     xadvance=10    page=0  chnl=15
char id=1168 x=127   y=34    width=9     height=15    xoffset=1     yoffset=1     xadvance=10    page=0  chnl=15
char id=1169 x=189   y=102   width=8     height=12    xoffset=2     yoffset=4     xadvance=10    page=0  chnl=15
char id=1170 x=279   y=75    width=10    height=12    xoffset=0     yoffset=4     xadvance=10    page=0  chnl=15
char id=1171 x=430   y=110   width=9     height=9     xoffset=0     yoffset=7     xadvance=10    page=0  chnl=15
char id=1172 x=437   y=0     width=10    height=16    xoffset=0     yoffset=4     xadvance=10    page=0  chnl=15
char id=1173 x=363   y=47    width=9     height=13    xoffset=1     yoffset=7     xadvance=10    page=0  chnl=15
char id=1174 x=137   y=17    width=12    height=15    xoffset=-1    yoffset=4     xadvance=10    page=0  chnl=15
char id=1175 x=195   y=62    width=12    height=12    xoffset=-1    yoffset=7     xadvance=10    page=0  chnl=15
char id=1176 x=415   y=0     width=10    height=16    xoffset=0     yoffset=4     xadvance=10    page=0  chnl=15
char id=1177 x=383   y=47    width=9     height=13    xoffset=0     yoffset=7     xadvance=10    page=0  chnl=15
char id=1178 x=292   y=17    width=11    height=15    xoffset=0     yoffset=4     xadvance=10    page=0  chnl=15
char id=1179 x=323   y=74    width=10    height=12    xoffset=1     yoffset=7     xadvance=10    page=0  chnl=15
char id=1180 x=336   y=61    width=11    height=12    xoffset=0     yoffset=4     xadvance=10    page=0  chnl=15
char id=1181 x=0     y=119   width=11    height=9     xoffset=1     yoffset=7     xadvance=10    page=0  chnl=15
char id=1182 x=208   y=62    width=12    height=12    xoffset=-1    yoffset=4     xadvance=10    page=0  chnl=15
char id=1183 x=288   y=33    width=12    height=13    xoffset=0     yoffset=3     xadvance=10    page=0  chnl=15
char id=1184 x=221   y=62    width=12    height=12    xoffset=-1    yoffset=4     xadvance=10    page=0  chnl=15
char id=1185 x=319   y=100   width=12    height=9     xoffset=-1    yoffset=7     xadvance=10    page=0  chnl=15
char id=1186 x=352   y=17    width=11    height=15    xoffset=0     yoffset=4     xadvance=10    page=0  chnl=15
char id=1187 x=367   y=74    width=10    height=12    xoffset=0     yoffset=7     xadvance=10    page=0  chnl=15
char id=1188 x=24    y=80    width=11    height=12    xoffset=0     yoffset=4     xadvance=10    page=0  chnl=15
char id=1189 x=470   y=99    width=11    height=9     xoffset=0     yoffset=7     xadvance=10    page=0  chnl=15
char id=1190 x=393   y=0     width=10    height=16    xoffset=0     yoffset=4     xadvance=10    page=0  chnl=15
char id=1191 x=462   y=33    width=10    height=13    xoffset=0     yoffset=7     xadvance=10    page=0  chnl=15
char id=1192 x=313   y=33    width=11    height=13    xoffset=0     yoffset=4     xadvance=10    page=0  chnl=15
char id=1193 x=398   y=110   width=10    height=9     xoffset=0     yoffset=7     xadvance=10    page=0  chnl=15
char id=1194 x=327   y=0     width=10    height=16    xoffset=0     yoffset=4     xadvance=10    page=0  chnl=15
char id=1195 x=473   y=33    width=10    height=13    xoffset=0     yoffset=7     xadvance=10    page=0  chnl=15
char id=1196 x=376   y=17    width=10    height=15    xoffset=0     yoffset=4     xadvance=10    page=0  chnl=15
char id=1197 x=433   y=74    width=10    height=12    xoffset=0     yoffset=7     xadvance=10    page=0  chnl=15
char id=1198 x=324   y=61    width=11    height=12    xoffset=0     yoffset=4     xadvance=10    page=0  chnl=15
char id=1199 x=484   y=33    width=10    height=13    xoffset=0     yoffset=7     xadvance=10    page=0  chnl=15
char id=1200 x=420   y=61    width=11    height=12    xoffset=0     yoffset=4     xadvance=10    page=0  chnl=15
char id=1201 x=325   y=33    width=11    height=13    xoffset=0     yoffset=7     xadvance=10    page=0  chnl=15
char id=1202 x=202   y=17    width=12    height=15    xoffset=-1    yoffset=4     xadvance=10    page=0  chnl=15
char id=1203 x=360   y=61    width=11    height=12    xoffset=0     yoffset=7     xadvance=10    page=0  chnl=15
char id=1204 x=189   y=17    width=12    height=15    xoffset=-1    yoffset=4     xadvance=10    page=0  chnl=15
char id=1205 x=234   y=62    width=12    height=12    xoffset=-1    yoffset=7     xadvance=10    page=0  chnl=15
char id=1206 x=316   y=17    width=11    height=15    xoffset=0     yoffset=4     xadvance=10    page=0  chnl=15
char id=1207 x=36    y=79    width=11    height=12    xoffset=0     yoffset=7     xadvance=10    page=0  chnl=15
char id=1208 x=499   y=73    width=10    height=12    xoffset=0     yoffset=4     xadvance=10    page=0  chnl=15
char id=1209 x=134   y=117   width=10    height=9     xoffset=0     yoffset=7     xadvance=10    page=0  chnl=15
char id=1210 x=0     y=93    width=10    height=12    xoffset=0     yoffset=4     xadvance=10    page=0  chnl=15
char id=1211 x=156   y=117   width=10    height=9     xoffset=0     yoffset=7     xadvance=10    page=0  chnl=15
char id=1212 x=396   y=61    width=11    height=12    xoffset=-1    yoffset=4     xadvance=10    page=0  chnl=15
char id=1213 x=458   y=99    width=11    height=9     xoffset=-1    yoffset=7     xadvance=10    page=0  chnl=15
char id=1214 x=304   y=17    width=11    height=15    xoffset=-1    yoffset=4     xadvance=10    page=0  chnl=15
char id=1215 x=60    y=78    width=11    height=12    xoffset=-1    yoffset=7     xadvance=10    page=0  chnl=15
char id=1216 x=152   y=104   width=9     height=12    xoffset=1     yoffset=4     xadvance=10    page=0  chnl=15
char id=1217 x=180   y=0     width=12    height=16    xoffset=-1    yoffset=0     xadvance=10    page=0  chnl=15
char id=1218 x=275   y=33    width=12    height=13    xoffset=-1    yoffset=3     xadvance=10    page=0  chnl=15
char id=1219 x=316   y=0     width=10    height=16    xoffset=0     yoffset=4     xadvance=10    page=0  chnl=15
char id=1220 x=373   y=47    width=9     height=13    xoffset=1     yoffset=7     xadvance=10    page=0  chnl=15
char id=1221 x=267   y=17    width=12    height=15    xoffset=-1    yoffset=4     xadvance=10    page=0  chnl=15
char id=1222 x=260   y=62    width=12    height=12    xoffset=-1    yoffset=7     xadvance=10    page=0  chnl=15
char id=1223 x=360   y=0     width=10    height=16    xoffset=0     yoffset=4     xadvance=10    page=0  chnl=15
char id=1224 x=418   y=33    width=10    height=13    xoffset=0     yoffset=7     xadvance=10    page=0  chnl=15
char id=1225 x=340   y=17    width=11    height=15    xoffset=0     yoffset=4     xadvance=10    page=0  chnl=15
char id=1226 x=372   y=61    width=11    height=12    xoffset=0     yoffset=7     xadvance=10    page=0  chnl=15
char id=1227 x=464   y=17    width=10    height=15    xoffset=0     yoffset=4     xadvance=10    page=0  chnl=15
char id=1228 x=99    y=91    width=10    height=12    xoffset=0     yoffset=7     xadvance=10    page=0  chnl=15
char id=1229 x=328   y=17    width=11    height=15    xoffset=0     yoffset=4     xadvance=10    page=0  chnl=15
char id=1230 x=348   y=61    width=11    height=12    xoffset=0     yoffset=7     xadvance=10    page=0  chnl=15
char id=1231 x=132   y=104   width=9     height=12    xoffset=1     yoffset=4     xadvance=10    page=0  chnl=15
char id=1232 x=206   y=0     width=12    height=16    xoffset=-1    yoffset=0     xadvance=10    page=0  chnl=15
char id=1233 x=440   y=33    width=10    height=13    xoffset=0     yoffset=3     xadvance=10    page=0  chnl=15
char id=1234 x=215   y=17    width=12    height=15    xoffset=-1    yoffset=1     xadvance=10    page=0  chnl=15
char id=1235 x=154   y=89    width=10    height=12    xoffset=0     yoffset=4     xadvance=10    page=0  chnl=15
char id=1236 x=84    y=78    width=11    height=12    xoffset=-1    yoffset=4     xadvance=10    page=0  chnl=15
char id=1237 x=332   y=100   width=12    height=9     xoffset=-1    yoffset=7     xadvance=10    page=0  chnl=15
char id=1238 x=83    y=18    width=9     height=16    xoffset=1     yoffset=0     xadvance=10    page=0  chnl=15
char id=1239 x=220   y=48    width=10    height=13    xoffset=0     yoffset=3     xadvance=10    page=0  chnl=15
char id=1240 x=198   y=89    width=10    height=12    xoffset=0     yoffset=4     xadvance=10    page=0  chnl=15
char id=1241 x=244   y=113   width=10    height=9     xoffset=0     yoffset=7     xadvance=10    page=0  chnl=15
char id=1242 x=475   y=17    width=10    height=15    xoffset=0     yoffset=1     xadvance=10    page=0  chnl=15
char id=1243 x=220   y=88    width=10    height=12    xoffset=0     yoffset=4     xadvance=10    page=0  chnl=15
char id=1244 x=176   y=17    width=12    height=15    xoffset=-1    yoffset=1     xadvance=10    page=0  chnl=15
char id=1245 x=52    y=65    width=12    height=12    xoffset=-1    yoffset=4     xadvance=10    page=0  chnl=15
char id=1246 x=486   y=17    width=10    height=15    xoffset=0     yoffset=1     xadvance=10    page=0  chnl=15
char id=1247 x=82    y=104   width=9     height=12    xoffset=0     yoffset=4     xadvance=10    page=0  chnl=15
char id=1248 x=264   y=88    width=10    height=12    xoffset=0     yoffset=4     xadvance=10    page=0  chnl=15
char id=1249 x=264   y=48    width=10    height=13    xoffset=0     yoffset=7     xadvance=10    page=0  chnl=15
char id=1250 x=497   y=17    width=10    height=15    xoffset=0     yoffset=1     xadvance=10    page=0  chnl=15
char id=1251 x=297   y=87    width=10    height=12    xoffset=0     yoffset=4     xadvance=10    page=0  chnl=15
char id=1252 x=0     y=37    width=10    height=15    xoffset=0     yoffset=1     xadvance=10    page=0  chnl=15
char id=1253 x=319   y=87    width=10    height=12    xoffset=0     yoffset=4     xadvance=10    page=0  chnl=15
char id=1254 x=11    y=37    width=10    height=15    xoffset=0     yoffset=1     xadvance=10    page=0  chnl=15
char id=1255 x=341   y=87    width=10    height=12    xoffset=0     yoffset=4     xadvance=10    page=0  chnl=15
char id=1256 x=352   y=87    width=10    height=12    xoffset=0     yoffset=4     xadvance=10    page=0  chnl=15
char id=1257 x=343   y=110   width=10    height=9     xoffset=0     yoffset=7     xadvance=10    page=0  chnl=15
char id=1258 x=22    y=36    width=10    height=15    xoffset=0     yoffset=1     xadvance=10    page=0  chnl=15
char id=1259 x=374   y=87    width=10    height=12    xoffset=0     yoffset=4     xadvance=10    page=0  chnl=15
char id=1260 x=33    y=35    width=10    height=15    xoffset=0     yoffset=1     xadvance=10    page=0  chnl=15
char id=1261 x=385   y=87    width=10    height=12    xoffset=0     yoffset=4     xadvance=10    page=0  chnl=15
char id=1262 x=163   y=17    width=12    height=15    xoffset=-1    yoffset=1     xadvance=10    page=0  chnl=15
char id=1263 x=382   y=0     width=10    height=16    xoffset=0     yoffset=4     xadvance=10    page=0  chnl=15
char id=1264 x=150   y=17    width=12    height=15    xoffset=-1    yoffset=1     xadvance=10    page=0  chnl=15
char id=1265 x=404   y=0     width=10    height=16    xoffset=0     yoffset=4     xadvance=10    page=0  chnl=15
char id=1266 x=193   y=0     width=12    height=16    xoffset=-1    yoffset=0     xadvance=10    page=0  chnl=15
char id=1267 x=47    y=0     width=10    height=17    xoffset=0     yoffset=3     xadvance=10    page=0  chnl=15
char id=1268 x=55    y=35    width=10    height=15    xoffset=0     yoffset=1     xadvance=10    page=0  chnl=15
char id=1269 x=440   y=87    width=10    height=12    xoffset=0     yoffset=4     xadvance=10    page=0  chnl=15
char id=1270 x=137   y=33    width=9     height=15    xoffset=1     yoffset=4     xadvance=10    page=0  chnl=15
char id=1271 x=162   y=102   width=8     height=12    xoffset=1     yoffset=7     xadvance=10    page=0  chnl=15
char id=1272 x=66    y=35    width=10    height=15    xoffset=0     yoffset=1     xadvance=10    page=0  chnl=15
char id=1273 x=473   y=86    width=10    height=12    xoffset=0     yoffset=4     xadvance=10    page=0  chnl=15
char id=1274 x=398   y=17    width=10    height=15    xoffset=0     yoffset=4     xadvance=10    page=0  chnl=15
char id=1275 x=122   y=104   width=9     height=12    xoffset=0     yoffset=7     xadvance=10    page=0  chnl=15
char id=1276 x=123   y=18    width=13    height=15    xoffset=-1    yoffset=4     xadvance=10    page=0  chnl=15
char id=1277 x=168   y=76    width=11    height=12    xoffset=0     yoffset=7     xadvance=10    page=0  chnl=15
char id=1278 x=299   y=61    width=12    height=12    xoffset=-1    yoffset=4     xadvance=10    page=0  chnl=15
char id=1279 x=310   y=110   width=10    height=9     xoffset=0     yoffset=7     xadvance=10    page=0  chnl=15
